<svg xmlns="http://www.w3.org/2000/svg" width="407" height="184" viewBox="0 0 407 184">
  <g id="logo6" transform="translate(-966 -4196)">
    <g id="Rectangle_642" data-name="Rectangle 642" transform="translate(966 4196)" fill="#fff" stroke="#707070" stroke-width="1" opacity="0">
      <rect width="407" height="184" stroke="none"/>
      <rect x="0.5" y="0.5" width="406" height="183" fill="none"/>
    </g>
    <g id="Group_166" data-name="Group 166" transform="translate(1108.33 4226)">
      <path id="Subtraction_1" data-name="Subtraction 1" d="M124,124H0V0H124V124ZM56.031,22.878h0v78.244H68.3V22.878Zm24.2,0h0V82.225H92.5V22.878Zm-48.4,0h0V82.225H44.1V22.878Z" transform="translate(-0.33)" fill="#0c2026"/>
    </g>
  </g>
</svg>
